\relax 
\providecommand\hyper@newdestlabel[2]{}
\providecommand\HyperFirstAtBeginDocument{\AtBeginDocument}
\HyperFirstAtBeginDocument{\ifx\hyper@anchor\@undefined
\global\let\oldcontentsline\contentsline
\gdef\contentsline#1#2#3#4{\oldcontentsline{#1}{#2}{#3}}
\global\let\oldnewlabel\newlabel
\gdef\newlabel#1#2{\newlabelxx{#1}#2}
\gdef\newlabelxx#1#2#3#4#5#6{\oldnewlabel{#1}{{#2}{#3}}}
\AtEndDocument{\ifx\hyper@anchor\@undefined
\let\contentsline\oldcontentsline
\let\newlabel\oldnewlabel
\fi}
\fi}
\global\let\hyper@last\relax 
\gdef\HyperFirstAtBeginDocument#1{#1}
\providecommand\HyField@AuxAddToFields[1]{}
\providecommand\HyField@AuxAddToCoFields[2]{}
\select@language{english}
\@writefile{toc}{\select@language{english}}
\@writefile{lof}{\select@language{english}}
\@writefile{lot}{\select@language{english}}
\newlabel{index::doc}{{}{1}{}{section*.2}{}}
\@writefile{toc}{\contentsline {chapter}{\numberline {1}Introduction}{1}{chapter.1}}
\@writefile{lof}{\addvspace {10\p@ }}
\@writefile{lot}{\addvspace {10\p@ }}
\@writefile{loliteral-block}{\addvspace {10\p@ }}
\newlabel{index:introduction}{{1}{1}{Introduction}{chapter.1}{}}
\newlabel{index:intro}{{1}{1}{Introduction}{chapter.1}{}}
\newlabel{index:pacific-emis-developer-guide}{{1}{1}{Introduction}{chapter.1}{}}
\@writefile{toc}{\contentsline {section}{\numberline {1.1}Project Overview}{1}{section.1.1}}
\newlabel{index:project-overview}{{1.1}{1}{Project Overview}{section.1.1}{}}
\@writefile{toc}{\contentsline {section}{\numberline {1.2}Project Structure}{1}{section.1.2}}
\newlabel{index:project-structure}{{1.2}{1}{Project Structure}{section.1.2}{}}
\@writefile{toc}{\contentsline {section}{\numberline {1.3}Programming Language}{2}{section.1.3}}
\newlabel{index:prog-lang}{{1.3}{2}{Programming Language}{section.1.3}{}}
\newlabel{index:programming-language}{{1.3}{2}{Programming Language}{section.1.3}{}}
\@writefile{toc}{\contentsline {section}{\numberline {1.4}Development Web Stack}{3}{section.1.4}}
\newlabel{index:development-web-stack}{{1.4}{3}{Development Web Stack}{section.1.4}{}}
\@writefile{toc}{\contentsline {section}{\numberline {1.5}Database and Operating System}{3}{section.1.5}}
\newlabel{index:database-and-operating-system}{{1.5}{3}{Database and Operating System}{section.1.5}{}}
\@writefile{toc}{\contentsline {chapter}{\numberline {2}Setting Up the Development Environment}{5}{chapter.2}}
\@writefile{lof}{\addvspace {10\p@ }}
\@writefile{lot}{\addvspace {10\p@ }}
\@writefile{loliteral-block}{\addvspace {10\p@ }}
\newlabel{index:setting-up-the-development-environment}{{2}{5}{Setting Up the Development Environment}{chapter.2}{}}
\newlabel{index:dev-env}{{2}{5}{Setting Up the Development Environment}{chapter.2}{}}
\@writefile{toc}{\contentsline {section}{\numberline {2.1}Main Development Tools}{5}{section.2.1}}
\newlabel{index:main-development-tools}{{2.1}{5}{Main Development Tools}{section.2.1}{}}
\@writefile{toc}{\contentsline {section}{\numberline {2.2}Software Configuration Management}{5}{section.2.2}}
\newlabel{index:software-configuration-management}{{2.2}{5}{Software Configuration Management}{section.2.2}{}}
\@writefile{toc}{\contentsline {section}{\numberline {2.3}Visual Studio Setup}{6}{section.2.3}}
\newlabel{index:visual-studio-setup}{{2.3}{6}{Visual Studio Setup}{section.2.3}{}}
\@writefile{toc}{\contentsline {section}{\numberline {2.4}Databases Setup}{6}{section.2.4}}
\newlabel{index:databases-setup}{{2.4}{6}{Databases Setup}{section.2.4}{}}
\@writefile{toc}{\contentsline {section}{\numberline {2.5}Building the Solution}{7}{section.2.5}}
\newlabel{index:building-the-solution}{{2.5}{7}{Building the Solution}{section.2.5}{}}
\@writefile{toc}{\contentsline {section}{\numberline {2.6}Frontend Development Tools}{8}{section.2.6}}
\newlabel{index:frontend-development-tools}{{2.6}{8}{Frontend Development Tools}{section.2.6}{}}
\@writefile{toc}{\contentsline {chapter}{\numberline {3}Development Work-flow}{9}{chapter.3}}
\@writefile{lof}{\addvspace {10\p@ }}
\@writefile{lot}{\addvspace {10\p@ }}
\@writefile{loliteral-block}{\addvspace {10\p@ }}
\newlabel{index:development-work-flow}{{3}{9}{Development Work-flow}{chapter.3}{}}
\newlabel{index:dev-flow}{{3}{9}{Development Work-flow}{chapter.3}{}}
\@writefile{toc}{\contentsline {section}{\numberline {3.1}Contribute New Code in Branches Uninterrupted}{9}{section.3.1}}
\newlabel{index:contribute-new-code-in-branches-uninterrupted}{{3.1}{9}{Contribute New Code in Branches Uninterrupted}{section.3.1}{}}
\newlabel{index:id3}{{3.1}{9}{Contribute New Code in Branches Uninterrupted}{section*.3}{}}
\newlabel{index:id4}{{3.1}{9}{Contribute New Code in Branches Uninterrupted}{section*.4}{}}
\@writefile{toc}{\contentsline {section}{\numberline {3.2}Contribute New Code in Branches Interrupted}{14}{section.3.2}}
\newlabel{index:contribute-new-code-in-branches-interrupted}{{3.2}{14}{Contribute New Code in Branches Interrupted}{section.3.2}{}}
\@writefile{toc}{\contentsline {section}{\numberline {3.3}Database Schema Changes}{14}{section.3.3}}
\newlabel{index:database-schema-changes}{{3.3}{14}{Database Schema Changes}{section.3.3}{}}
\@writefile{toc}{\contentsline {section}{\numberline {3.4}Testing Code}{14}{section.3.4}}
\newlabel{index:testing-code}{{3.4}{14}{Testing Code}{section.3.4}{}}
\@writefile{toc}{\contentsline {chapter}{\numberline {4}High Level Architecture}{15}{chapter.4}}
\@writefile{lof}{\addvspace {10\p@ }}
\@writefile{lot}{\addvspace {10\p@ }}
\@writefile{loliteral-block}{\addvspace {10\p@ }}
\newlabel{index:high-level-architecture}{{4}{15}{High Level Architecture}{chapter.4}{}}
\newlabel{index:high-level}{{4}{15}{High Level Architecture}{chapter.4}{}}
\@writefile{toc}{\contentsline {section}{\numberline {4.1}Data Retrieval Service}{15}{section.4.1}}
\newlabel{index:id5}{{4.1}{15}{Data Retrieval Service}{section.4.1}{}}
\newlabel{index:data-retrieval-service}{{4.1}{15}{Data Retrieval Service}{section.4.1}{}}
\@writefile{toc}{\contentsline {section}{\numberline {4.2}Templates}{17}{section.4.2}}
\newlabel{index:templates}{{4.2}{17}{Templates}{section.4.2}{}}
\@writefile{toc}{\contentsline {section}{\numberline {4.3}Theme (Look and Feel)}{18}{section.4.3}}
\newlabel{index:theme-look-and-feel}{{4.3}{18}{Theme (Look and Feel)}{section.4.3}{}}
\@writefile{toc}{\contentsline {section}{\numberline {4.4}Navigation and Module System}{18}{section.4.4}}
\newlabel{index:navigation-and-module-system}{{4.4}{18}{Navigation and Module System}{section.4.4}{}}
\@writefile{toc}{\contentsline {section}{\numberline {4.5}Lookups and Configuration}{21}{section.4.5}}
\newlabel{index:lookups-and-configuration}{{4.5}{21}{Lookups and Configuration}{section.4.5}{}}
\@writefile{toc}{\contentsline {chapter}{\numberline {5}Low Level Documentation and API}{23}{chapter.5}}
\@writefile{lof}{\addvspace {10\p@ }}
\@writefile{lot}{\addvspace {10\p@ }}
\@writefile{loliteral-block}{\addvspace {10\p@ }}
\newlabel{index:low-level-documentation-and-api}{{5}{23}{Low Level Documentation and API}{chapter.5}{}}
\newlabel{index:low-level}{{5}{23}{Low Level Documentation and API}{chapter.5}{}}
\@writefile{toc}{\contentsline {chapter}{\numberline {6}eSurvey Technology}{25}{chapter.6}}
\@writefile{lof}{\addvspace {10\p@ }}
\@writefile{lot}{\addvspace {10\p@ }}
\@writefile{loliteral-block}{\addvspace {10\p@ }}
\newlabel{index:esurvey}{{6}{25}{eSurvey Technology}{chapter.6}{}}
\newlabel{index:esurvey-technology}{{6}{25}{eSurvey Technology}{chapter.6}{}}
\@writefile{toc}{\contentsline {section}{\numberline {6.1}Creating/Editing the PDF eSurvey}{25}{section.6.1}}
\newlabel{index:creating-editing-the-pdf-esurvey}{{6.1}{25}{Creating/Editing the PDF eSurvey}{section.6.1}{}}
\@writefile{toc}{\contentsline {section}{\numberline {6.2}PDF eSurvey Manager}{26}{section.6.2}}
\newlabel{index:pdf-esurvey-manager}{{6.2}{26}{PDF eSurvey Manager}{section.6.2}{}}
\@writefile{toc}{\contentsline {section}{\numberline {6.3}PDF eSurvey Process}{26}{section.6.3}}
\newlabel{index:pdf-esurvey-process}{{6.3}{26}{PDF eSurvey Process}{section.6.3}{}}
\@writefile{toc}{\contentsline {chapter}{\numberline {7}Security Considerations}{29}{chapter.7}}
\@writefile{lof}{\addvspace {10\p@ }}
\@writefile{lot}{\addvspace {10\p@ }}
\@writefile{loliteral-block}{\addvspace {10\p@ }}
\newlabel{index:security}{{7}{29}{Security Considerations}{chapter.7}{}}
\newlabel{index:security-considerations}{{7}{29}{Security Considerations}{chapter.7}{}}
\@writefile{toc}{\contentsline {section}{\numberline {7.1}Authentication}{29}{section.7.1}}
\newlabel{index:authentication}{{7.1}{29}{Authentication}{section.7.1}{}}
\@writefile{toc}{\contentsline {section}{\numberline {7.2}Authorization}{30}{section.7.2}}
\newlabel{index:authorization}{{7.2}{30}{Authorization}{section.7.2}{}}
\@writefile{toc}{\contentsline {subsection}{\numberline {7.2.1}Implementing Authorization as Claims}{30}{subsection.7.2.1}}
\newlabel{index:implementing-authorization-as-claims}{{7.2.1}{30}{Implementing Authorization as Claims}{subsection.7.2.1}{}}
\@writefile{toc}{\contentsline {subsection}{\numberline {7.2.2}Server-side Implementation}{31}{subsection.7.2.2}}
\newlabel{index:server-side-implementation}{{7.2.2}{31}{Server-side Implementation}{subsection.7.2.2}{}}
\@writefile{toc}{\contentsline {subsection}{\numberline {7.2.3}Client-side Implementation}{31}{subsection.7.2.3}}
\newlabel{index:client-side-implementation}{{7.2.3}{31}{Client-side Implementation}{subsection.7.2.3}{}}
\@writefile{toc}{\contentsline {subsection}{\numberline {7.2.4}Assigning Permissions}{31}{subsection.7.2.4}}
\newlabel{index:assigning-permissions}{{7.2.4}{31}{Assigning Permissions}{subsection.7.2.4}{}}
\@writefile{toc}{\contentsline {section}{\numberline {7.3}SSL/TLS Encryption}{31}{section.7.3}}
\newlabel{index:ssl-tls-encryption}{{7.3}{31}{SSL/TLS Encryption}{section.7.3}{}}
\@writefile{toc}{\contentsline {section}{\numberline {7.4}Latest Top 10 Security Risks}{31}{section.7.4}}
\newlabel{index:latest-top-10-security-risks}{{7.4}{31}{Latest Top 10 Security Risks}{section.7.4}{}}
\@writefile{toc}{\contentsline {section}{\numberline {7.5}Integrated Penetration Testing}{31}{section.7.5}}
\newlabel{index:integrated-penetration-testing}{{7.5}{31}{Integrated Penetration Testing}{section.7.5}{}}
\@writefile{toc}{\contentsline {chapter}{\numberline {8}Project Documentation}{33}{chapter.8}}
\@writefile{lof}{\addvspace {10\p@ }}
\@writefile{lot}{\addvspace {10\p@ }}
\@writefile{loliteral-block}{\addvspace {10\p@ }}
\newlabel{index:doc}{{8}{33}{Project Documentation}{chapter.8}{}}
\newlabel{index:project-documentation}{{8}{33}{Project Documentation}{chapter.8}{}}
\@writefile{toc}{\contentsline {chapter}{\numberline {9}Indices and tables}{35}{chapter.9}}
\@writefile{lof}{\addvspace {10\p@ }}
\@writefile{lot}{\addvspace {10\p@ }}
\@writefile{loliteral-block}{\addvspace {10\p@ }}
\newlabel{index:indices-and-tables}{{9}{35}{Indices and tables}{chapter.9}{}}
\bibcite{REST-SERV}{REST-SERV}
\bibcite{FHS}{FHS}
\bibcite{PRO-GIT}{PRO-GIT}
\@writefile{toc}{\contentsline {chapter}{Bibliography}{37}{chapter*.6}}
\newlabel{index:rest-serv}{{9}{37}{\bibname }{section*.7}{}}
\newlabel{index:fhs}{{9}{37}{\bibname }{section*.8}{}}
\newlabel{index:pro-git}{{9}{37}{\bibname }{section*.9}{}}
