﻿{
  "editable": true,
  "deletable": true,
  "insertable": true,

  "gridOptions": {
    "columnDefs": [
      {
        "name": "id",
        "displayName": "id",
        "field": "id",
        "editable": "new",
        "pinned": "left",
        "width": 200
      },
      {
        "name": "icon",
        "displayName": "icon",
        "field": "icon",
        "width": 150
      },
      {
        "name": "label",
        "displayName": "label",
        "field": "label",
        "width": 200
      },
      {
        "name": "state",
        "displayName": "state",
        "field": "state",
        "width": 200
      },
      {
        "name": "children",
        "displayName": "children",
        "field": "children",
        "width": 400
      },
      {
        "name": "homestate",
        "displayName": "homestate",
        "field": "homestate",
        "width": 200
      },
      {
        "name": "menuPriority",
        "displayName": "menuPriority",
        "field": "menuPriority",
        "width": 200
      }


    ]
  }
}
